,,,,,,,,,,,,,,,,,
,,,,,,,,,,,,,,,,,
,,,,,,,,,,,,,,,,,
,,,,,,,,,,,,,,,,,
,,,,,,,,,,,,,,,,,
,,,,,,,,,,,,,,,,,
,,,,,,,,,,,,,,,,,
,,,,,,,,,,,,,,,,,
,,,,,,,,,,,,,,,,,
,,,,,,,,,,,,,,,,,
,,,,,,,,,,,,,,,,2388,4823.76
,,,,,,,,,,,,,,,,1,2.02
,,,,,,,,,,,,,,,,,
,,,,,,,,,,,,,,,,,
,,,,,,,,,,,,,,,,,
,,,,,,,,,,,,,,,,,
,,,,,,,,,,,,,,,,,
,,,,,,,,,,,,,,,,,
,,2006,2007,2008,2009,2010,2011,2012,2013,2014,2015,2016,2017,2018,,,
,,IPC Congreso,24,23.8,16.4,25.9,22.8,25.6,28.38,38.53,27.5,40.3,24.6,30.65,,,
,,Aumento paritario,20.8,29,15,26,24,22.1,32,28.15,27.4,35,25.1,10.8,,,
,,,,,,,,,,,,,,,,,
,,100,124,153.512,178.687968,224.968151712,276.260890302336,346.983678219734,445.457646098495,617.092477140244,786.792908353812,1103.8704504204,1375.42258122382,1797,,,
,,100,120.8,155.832,179.2068,225.800568,279.99270432,341.87109197472,451.26984140663,578.302301762597,736.757132445548,994.62212880149,1244.27228313066,1379,,,
,,,,,,,,,,,,,,,,,
,,,,,,,,,,,,,,,,,
,,,,,,,,,,,,,,,,,
,,,,,,,,,,,,,,,,,
,,,,,,,,,,,,,,,,,
,,,,,,,,,,,,,,,,,
,,,,,,,,,,,,13500,100,,,,
,,,,,,,,,,,,2200,16.2962962962963,,,,
